{
	"info": {
		"_postman_id": "638cdef4-0141-4154-8f86-505355dbd24d",
		"name": "Blockchain Study Project",
		"schema": "https://schema.getpostman.com/json/collection/v2.1.0/collection.json"
	},
	"item": [
		{
			"name": "Get chain #0",
			"request": {
				"method": "GET",
				"header": [],
				"url": {
					"raw": "http://127.0.0.1:8080/chain",
					"protocol": "http",
					"host": [
						"127",
						"0",
						"0",
						"1"
					],
					"port": "8080",
					"path": [
						"chain"
					]
				}
			},
			"response": [
				{
					"name": "Get chain #0",
					"originalRequest": {
						"method": "GET",
						"header": [],
						"url": {
							"raw": "http://127.0.0.1:8080/chain",
							"protocol": "http",
							"host": [
								"127",
								"0",
								"0",
								"1"
							],
							"port": "8080",
							"path": [
								"chain"
							]
						}
					},
					"status": "OK",
					"code": 200,
					"_postman_previewlanguage": "json",
					"header": [
						{
							"key": "Content-Type",
							"value": "application/json; charset=utf-8"
						},
						{
							"key": "Content-Length",
							"value": "112"
						}
					],
					"cookie": [],
					"body": "{\n    \"chain\": [\n        {\n            \"index\": 0,\n            \"transactions\": [],\n            \"previous_hash\": \"0\",\n            \"proof\": 0,\n            \"timestamp\": 1642631245.7443743\n        }\n    ]\n}"
				}
			]
		},
		{
			"name": "Get chain #1",
			"request": {
				"method": "GET",
				"header": [],
				"url": {
					"raw": "http://127.0.0.1:8081/chain",
					"protocol": "http",
					"host": [
						"127",
						"0",
						"0",
						"1"
					],
					"port": "8081",
					"path": [
						"chain"
					]
				}
			},
			"response": [
				{
					"name": "Get chain #1",
					"originalRequest": {
						"method": "GET",
						"header": [],
						"url": {
							"raw": "http://127.0.0.1:8081/chain",
							"protocol": "http",
							"host": [
								"127",
								"0",
								"0",
								"1"
							],
							"port": "8081",
							"path": [
								"chain"
							]
						}
					},
					"status": "OK",
					"code": 200,
					"_postman_previewlanguage": "json",
					"header": [
						{
							"key": "Content-Type",
							"value": "application/json; charset=utf-8"
						},
						{
							"key": "Content-Length",
							"value": "391"
						}
					],
					"cookie": [],
					"body": "{\n    \"chain\": [\n        {\n            \"index\": 0,\n            \"transactions\": [],\n            \"previous_hash\": \"0\",\n            \"proof\": 0,\n            \"timestamp\": 1642631249.1764948\n        },\n        {\n            \"index\": 1,\n            \"transactions\": [\n                {\n                    \"content\": \"Test Message\"\n                },\n                {\n                    \"content\": \"Test Message\"\n                },\n                {\n                    \"content\": \"Test Message\"\n                },\n                {\n                    \"content\": \"Test Message\"\n                }\n            ],\n            \"previous_hash\": \"e93228858dacca2256438ca2647a97e8c9b227b388e9bf14d4eb340305f122cf\",\n            \"proof\": 39,\n            \"timestamp\": 1642631249.1764948\n        }\n    ]\n}"
				}
			]
		},
		{
			"name": "Get nodes #0",
			"request": {
				"method": "GET",
				"header": [],
				"url": {
					"raw": "http://127.0.0.1:8080/nodes",
					"protocol": "http",
					"host": [
						"127",
						"0",
						"0",
						"1"
					],
					"port": "8080",
					"path": [
						"nodes"
					]
				}
			},
			"response": [
				{
					"name": "Get nodes #0",
					"originalRequest": {
						"method": "GET",
						"header": [],
						"url": {
							"raw": "http://127.0.0.1:8080/nodes",
							"protocol": "http",
							"host": [
								"127",
								"0",
								"0",
								"1"
							],
							"port": "8080",
							"path": [
								"nodes"
							]
						}
					},
					"status": "OK",
					"code": 200,
					"_postman_previewlanguage": "json",
					"header": [
						{
							"key": "Content-Type",
							"value": "application/json; charset=utf-8"
						},
						{
							"key": "Content-Length",
							"value": "61"
						}
					],
					"cookie": [],
					"body": "{\n    \"nodes\": [\n        \"http://127.0.0.1:8081\",\n        \"http://127.0.0.1:8080\"\n    ]\n}"
				}
			]
		},
		{
			"name": "Get nodes #1",
			"request": {
				"method": "GET",
				"header": [],
				"url": {
					"raw": "http://127.0.0.1:8081/nodes",
					"protocol": "http",
					"host": [
						"127",
						"0",
						"0",
						"1"
					],
					"port": "8081",
					"path": [
						"nodes"
					]
				}
			},
			"response": [
				{
					"name": "Get nodes #1",
					"originalRequest": {
						"method": "GET",
						"header": [],
						"url": {
							"raw": "http://127.0.0.1:8081/nodes",
							"protocol": "http",
							"host": [
								"127",
								"0",
								"0",
								"1"
							],
							"port": "8081",
							"path": [
								"nodes"
							]
						}
					},
					"status": "OK",
					"code": 200,
					"_postman_previewlanguage": "json",
					"header": [
						{
							"key": "Content-Type",
							"value": "application/json; charset=utf-8"
						},
						{
							"key": "Content-Length",
							"value": "61"
						}
					],
					"cookie": [],
					"body": "{\n    \"nodes\": [\n        \"http://127.0.0.1:8081\",\n        \"http://127.0.0.1:8080\"\n    ]\n}"
				}
			]
		},
		{
			"name": "Get nodes consensus #0",
			"request": {
				"method": "GET",
				"header": [],
				"url": {
					"raw": "http://127.0.0.1:8080/nodes?consensus=1",
					"protocol": "http",
					"host": [
						"127",
						"0",
						"0",
						"1"
					],
					"port": "8080",
					"path": [
						"nodes"
					],
					"query": [
						{
							"key": "consensus",
							"value": "1"
						}
					]
				}
			},
			"response": [
				{
					"name": "Get nodes consensus #0",
					"originalRequest": {
						"method": "GET",
						"header": [],
						"url": {
							"raw": "http://127.0.0.1:8080/nodes?consensus=1",
							"protocol": "http",
							"host": [
								"127",
								"0",
								"0",
								"1"
							],
							"port": "8080",
							"path": [
								"nodes"
							],
							"query": [
								{
									"key": "consensus",
									"value": "1"
								}
							]
						}
					},
					"status": "OK",
					"code": 200,
					"_postman_previewlanguage": "json",
					"header": [
						{
							"key": "Content-Type",
							"value": "application/json; charset=utf-8"
						},
						{
							"key": "Content-Length",
							"value": "423"
						}
					],
					"cookie": [],
					"body": "{\n    \"message\": \"Chain is replaced\",\n    \"chain\": [\n        {\n            \"index\": 0,\n            \"transactions\": [],\n            \"previous_hash\": \"0\",\n            \"proof\": 0,\n            \"timestamp\": 1642631249.1764948\n        },\n        {\n            \"index\": 1,\n            \"transactions\": [\n                {\n                    \"content\": \"Test Message\"\n                },\n                {\n                    \"content\": \"Test Message\"\n                },\n                {\n                    \"content\": \"Test Message\"\n                },\n                {\n                    \"content\": \"Test Message\"\n                }\n            ],\n            \"previous_hash\": \"e93228858dacca2256438ca2647a97e8c9b227b388e9bf14d4eb340305f122cf\",\n            \"proof\": 39,\n            \"timestamp\": 1642631249.1764948\n        }\n    ]\n}"
				}
			]
		},
		{
			"name": "Get nodes consensus #1",
			"request": {
				"method": "GET",
				"header": [],
				"url": {
					"raw": "http://127.0.0.1:8081/nodes?consensus=1",
					"protocol": "http",
					"host": [
						"127",
						"0",
						"0",
						"1"
					],
					"port": "8081",
					"path": [
						"nodes"
					],
					"query": [
						{
							"key": "consensus",
							"value": "1"
						}
					]
				}
			},
			"response": [
				{
					"name": "Get nodes consensus #1",
					"originalRequest": {
						"method": "GET",
						"header": [],
						"url": {
							"raw": "http://127.0.0.1:8081/nodes?consensus=1",
							"protocol": "http",
							"host": [
								"127",
								"0",
								"0",
								"1"
							],
							"port": "8081",
							"path": [
								"nodes"
							],
							"query": [
								{
									"key": "consensus",
									"value": "1"
								}
							]
						}
					},
					"status": "OK",
					"code": 200,
					"_postman_previewlanguage": "json",
					"header": [
						{
							"key": "Content-Type",
							"value": "application/json; charset=utf-8"
						},
						{
							"key": "Content-Length",
							"value": "424"
						}
					],
					"cookie": [],
					"body": "{\n    \"message\": \"It's leading chain\",\n    \"chain\": [\n        {\n            \"index\": 0,\n            \"transactions\": [],\n            \"previous_hash\": \"0\",\n            \"proof\": 0,\n            \"timestamp\": 1642631249.1764948\n        },\n        {\n            \"index\": 1,\n            \"transactions\": [\n                {\n                    \"content\": \"Test Message\"\n                },\n                {\n                    \"content\": \"Test Message\"\n                },\n                {\n                    \"content\": \"Test Message\"\n                },\n                {\n                    \"content\": \"Test Message\"\n                }\n            ],\n            \"previous_hash\": \"e93228858dacca2256438ca2647a97e8c9b227b388e9bf14d4eb340305f122cf\",\n            \"proof\": 39,\n            \"timestamp\": 1642631249.1764948\n        }\n    ]\n}"
				}
			]
		},
		{
			"name": "Mine #0",
			"request": {
				"method": "GET",
				"header": [],
				"url": {
					"raw": "http://127.0.0.1:8080/mine",
					"protocol": "http",
					"host": [
						"127",
						"0",
						"0",
						"1"
					],
					"port": "8080",
					"path": [
						"mine"
					]
				}
			},
			"response": [
				{
					"name": "Mine #0",
					"originalRequest": {
						"method": "GET",
						"header": [],
						"url": {
							"raw": "http://127.0.0.1:8080/mine",
							"protocol": "http",
							"host": [
								"127",
								"0",
								"0",
								"1"
							],
							"port": "8080",
							"path": [
								"mine"
							]
						}
					},
					"status": "OK",
					"code": 200,
					"_postman_previewlanguage": "json",
					"header": [
						{
							"key": "Content-Type",
							"value": "application/json; charset=utf-8"
						},
						{
							"key": "Content-Length",
							"value": "55"
						}
					],
					"cookie": [],
					"body": "{\n    \"message\": \"Request success transferred to 1/1 nodes\"\n}"
				}
			]
		},
		{
			"name": "Mine #1",
			"request": {
				"method": "GET",
				"header": [],
				"url": {
					"raw": "http://127.0.0.1:8081/mine",
					"protocol": "http",
					"host": [
						"127",
						"0",
						"0",
						"1"
					],
					"port": "8081",
					"path": [
						"mine"
					]
				}
			},
			"response": [
				{
					"name": "Mine #1",
					"originalRequest": {
						"method": "GET",
						"header": [],
						"url": {
							"raw": "http://127.0.0.1:8081/mine",
							"protocol": "http",
							"host": [
								"127",
								"0",
								"0",
								"1"
							],
							"port": "8081",
							"path": [
								"mine"
							]
						}
					},
					"status": "OK",
					"code": 200,
					"_postman_previewlanguage": "json",
					"header": [
						{
							"key": "Content-Type",
							"value": "application/json; charset=utf-8"
						},
						{
							"key": "Content-Length",
							"value": "277"
						}
					],
					"cookie": [],
					"body": "{\n    \"index\": 1,\n    \"transactions\": [\n        {\n            \"content\": \"Test Message\"\n        },\n        {\n            \"content\": \"Test Message\"\n        },\n        {\n            \"content\": \"Test Message\"\n        },\n        {\n            \"content\": \"Test Message\"\n        }\n    ],\n    \"previous_hash\": \"e93228858dacca2256438ca2647a97e8c9b227b388e9bf14d4eb340305f122cf\",\n    \"proof\": 39,\n    \"timestamp\": 1642631249.1764948\n}"
				}
			]
		},
		{
			"name": "Get transactions #0",
			"request": {
				"method": "GET",
				"header": [],
				"url": {
					"raw": "http://127.0.0.1:8080/transactions",
					"protocol": "http",
					"host": [
						"127",
						"0",
						"0",
						"1"
					],
					"port": "8080",
					"path": [
						"transactions"
					]
				}
			},
			"response": [
				{
					"name": "Get transactions #0",
					"originalRequest": {
						"method": "GET",
						"header": [],
						"url": {
							"raw": "http://127.0.0.1:8080/transactions",
							"protocol": "http",
							"host": [
								"127",
								"0",
								"0",
								"1"
							],
							"port": "8080",
							"path": [
								"transactions"
							]
						}
					},
					"status": "OK",
					"code": 200,
					"_postman_previewlanguage": "json",
					"header": [
						{
							"key": "Content-Type",
							"value": "application/json; charset=utf-8"
						},
						{
							"key": "Content-Length",
							"value": "20"
						}
					],
					"cookie": [],
					"body": "{\n    \"transactions\": []\n}"
				}
			]
		},
		{
			"name": "Get transactions #1",
			"request": {
				"method": "GET",
				"header": [],
				"url": {
					"raw": "http://127.0.0.1:8081/transactions",
					"protocol": "http",
					"host": [
						"127",
						"0",
						"0",
						"1"
					],
					"port": "8081",
					"path": [
						"transactions"
					]
				}
			},
			"response": [
				{
					"name": "Get transactions #1",
					"originalRequest": {
						"method": "GET",
						"header": [],
						"url": {
							"raw": "http://127.0.0.1:8081/transactions",
							"protocol": "http",
							"host": [
								"127",
								"0",
								"0",
								"1"
							],
							"port": "8081",
							"path": [
								"transactions"
							]
						}
					},
					"status": "OK",
					"code": 200,
					"_postman_previewlanguage": "json",
					"header": [
						{
							"key": "Content-Type",
							"value": "application/json; charset=utf-8"
						},
						{
							"key": "Content-Length",
							"value": "134"
						}
					],
					"cookie": [],
					"body": "{\n    \"transactions\": [\n        {\n            \"content\": \"Test Message\"\n        },\n        {\n            \"content\": \"Test Message\"\n        },\n        {\n            \"content\": \"Test Message\"\n        },\n        {\n            \"content\": \"Test Message\"\n        }\n    ]\n}"
				}
			]
		},
		{
			"name": "Add node #0",
			"request": {
				"method": "POST",
				"header": [],
				"body": {
					"mode": "raw",
					"raw": "{\r\n    \"address\": \"http://127.0.0.1:8080\"\r\n}",
					"options": {
						"raw": {
							"language": "json"
						}
					}
				},
				"url": {
					"raw": "http://127.0.0.1:8080/nodes",
					"protocol": "http",
					"host": [
						"127",
						"0",
						"0",
						"1"
					],
					"port": "8080",
					"path": [
						"nodes"
					]
				}
			},
			"response": [
				{
					"name": "Add node #0",
					"originalRequest": {
						"method": "POST",
						"header": [],
						"body": {
							"mode": "raw",
							"raw": "{\r\n    \"address\": \"http://127.0.0.1:8080\"\r\n}",
							"options": {
								"raw": {
									"language": "json"
								}
							}
						},
						"url": {
							"raw": "http://127.0.0.1:8080/nodes",
							"protocol": "http",
							"host": [
								"127",
								"0",
								"0",
								"1"
							],
							"port": "8080",
							"path": [
								"nodes"
							]
						}
					},
					"status": "OK",
					"code": 200,
					"_postman_previewlanguage": "json",
					"header": [
						{
							"key": "Content-Type",
							"value": "application/json; charset=utf-8"
						},
						{
							"key": "Content-Length",
							"value": "47"
						}
					],
					"cookie": [],
					"body": "{\n    \"message\": \"Node http://127.0.0.1:8080 added\"\n}"
				}
			]
		},
		{
			"name": "Add node #1",
			"request": {
				"method": "POST",
				"header": [],
				"body": {
					"mode": "raw",
					"raw": "{\r\n    \"address\": \"http://127.0.0.1:8080\"\r\n}"
				},
				"url": {
					"raw": "http://127.0.0.1:8081/nodes",
					"protocol": "http",
					"host": [
						"127",
						"0",
						"0",
						"1"
					],
					"port": "8081",
					"path": [
						"nodes"
					]
				}
			},
			"response": [
				{
					"name": "Add node #1",
					"originalRequest": {
						"method": "POST",
						"header": [],
						"body": {
							"mode": "raw",
							"raw": "{\r\n    \"address\": \"http://127.0.0.1:8080\"\r\n}"
						},
						"url": {
							"raw": "http://127.0.0.1:8081/nodes",
							"protocol": "http",
							"host": [
								"127",
								"0",
								"0",
								"1"
							],
							"port": "8081",
							"path": [
								"nodes"
							]
						}
					},
					"status": "OK",
					"code": 200,
					"_postman_previewlanguage": "json",
					"header": [
						{
							"key": "Content-Type",
							"value": "application/json; charset=utf-8"
						},
						{
							"key": "Content-Length",
							"value": "47"
						}
					],
					"cookie": [],
					"body": "{\n    \"message\": \"Node http://127.0.0.1:8080 added\"\n}"
				}
			]
		},
		{
			"name": "Add node #0 [BAD]",
			"request": {
				"method": "POST",
				"header": [],
				"body": {
					"mode": "raw",
					"raw": "{}",
					"options": {
						"raw": {
							"language": "json"
						}
					}
				},
				"url": {
					"raw": "http://127.0.0.1:8080/nodes",
					"protocol": "http",
					"host": [
						"127",
						"0",
						"0",
						"1"
					],
					"port": "8080",
					"path": [
						"nodes"
					]
				}
			},
			"response": [
				{
					"name": "Add node #0 [BAD]",
					"originalRequest": {
						"method": "POST",
						"header": [],
						"body": {
							"mode": "raw",
							"raw": "{}",
							"options": {
								"raw": {
									"language": "json"
								}
							}
						},
						"url": {
							"raw": "http://127.0.0.1:8080/nodes",
							"protocol": "http",
							"host": [
								"127",
								"0",
								"0",
								"1"
							],
							"port": "8080",
							"path": [
								"nodes"
							]
						}
					},
					"status": "Bad Request",
					"code": 400,
					"_postman_previewlanguage": "json",
					"header": [
						{
							"key": "Content-Type",
							"value": "application/json; charset=utf-8"
						},
						{
							"key": "Content-Length",
							"value": "29"
						}
					],
					"cookie": [],
					"body": "{\n    \"message\": \"Node not added\"\n}"
				}
			]
		},
		{
			"name": "Add node #1 [BAD]",
			"request": {
				"method": "POST",
				"header": [],
				"body": {
					"mode": "raw",
					"raw": "{}",
					"options": {
						"raw": {
							"language": "json"
						}
					}
				},
				"url": {
					"raw": "http://127.0.0.1:8081/nodes",
					"protocol": "http",
					"host": [
						"127",
						"0",
						"0",
						"1"
					],
					"port": "8081",
					"path": [
						"nodes"
					]
				}
			},
			"response": [
				{
					"name": "Add node #1 [BAD]",
					"originalRequest": {
						"method": "POST",
						"header": [],
						"body": {
							"mode": "raw",
							"raw": "{}",
							"options": {
								"raw": {
									"language": "json"
								}
							}
						},
						"url": {
							"raw": "http://127.0.0.1:8081/nodes",
							"protocol": "http",
							"host": [
								"127",
								"0",
								"0",
								"1"
							],
							"port": "8081",
							"path": [
								"nodes"
							]
						}
					},
					"status": "Bad Request",
					"code": 400,
					"_postman_previewlanguage": "json",
					"header": [
						{
							"key": "Content-Type",
							"value": "application/json; charset=utf-8"
						},
						{
							"key": "Content-Length",
							"value": "29"
						}
					],
					"cookie": [],
					"body": "{\n    \"message\": \"Node not added\"\n}"
				}
			]
		},
		{
			"name": "Add transaction #0",
			"request": {
				"method": "POST",
				"header": [],
				"body": {
					"mode": "raw",
					"raw": "{\r\n    \"content\": \"Test Message\"\r\n}",
					"options": {
						"raw": {
							"language": "json"
						}
					}
				},
				"url": {
					"raw": "http://127.0.0.1:8080/transactions",
					"protocol": "http",
					"host": [
						"127",
						"0",
						"0",
						"1"
					],
					"port": "8080",
					"path": [
						"transactions"
					]
				}
			},
			"response": [
				{
					"name": "Add transaction #0",
					"originalRequest": {
						"method": "POST",
						"header": [],
						"body": {
							"mode": "raw",
							"raw": "{\r\n    \"content\": \"Test Message\"\r\n}",
							"options": {
								"raw": {
									"language": "json"
								}
							}
						},
						"url": {
							"raw": "http://127.0.0.1:8080/transactions",
							"protocol": "http",
							"host": [
								"127",
								"0",
								"0",
								"1"
							],
							"port": "8080",
							"path": [
								"transactions"
							]
						}
					},
					"status": "OK",
					"code": 200,
					"_postman_previewlanguage": "json",
					"header": [
						{
							"key": "Content-Type",
							"value": "application/json; charset=utf-8"
						},
						{
							"key": "Content-Length",
							"value": "55"
						}
					],
					"cookie": [],
					"body": "{\n    \"message\": \"Request success transferred to 1/1 nodes\"\n}"
				}
			]
		},
		{
			"name": "Add transaction #1",
			"request": {
				"method": "POST",
				"header": [],
				"body": {
					"mode": "raw",
					"raw": "{\r\n    \"content\": \"Test Message\"\r\n}",
					"options": {
						"raw": {
							"language": "json"
						}
					}
				},
				"url": {
					"raw": "http://127.0.0.1:8081/transactions",
					"protocol": "http",
					"host": [
						"127",
						"0",
						"0",
						"1"
					],
					"port": "8081",
					"path": [
						"transactions"
					]
				}
			},
			"response": [
				{
					"name": "Add transaction #1",
					"originalRequest": {
						"method": "POST",
						"header": [],
						"body": {
							"mode": "raw",
							"raw": "{\r\n    \"content\": \"Test Message\"\r\n}",
							"options": {
								"raw": {
									"language": "json"
								}
							}
						},
						"url": {
							"raw": "http://127.0.0.1:8081/transactions",
							"protocol": "http",
							"host": [
								"127",
								"0",
								"0",
								"1"
							],
							"port": "8081",
							"path": [
								"transactions"
							]
						}
					},
					"status": "OK",
					"code": 200,
					"_postman_previewlanguage": "json",
					"header": [
						{
							"key": "Content-Type",
							"value": "application/json; charset=utf-8"
						},
						{
							"key": "Content-Length",
							"value": "50"
						}
					],
					"cookie": [],
					"body": "{\n    \"message\": \"Transaction added to block № 1\"\n}"
				}
			]
		},
		{
			"name": "Add transaction #0 [BAD]",
			"request": {
				"method": "POST",
				"header": [],
				"body": {
					"mode": "raw",
					"raw": "{}",
					"options": {
						"raw": {
							"language": "json"
						}
					}
				},
				"url": {
					"raw": "http://127.0.0.1:8080/transactions",
					"protocol": "http",
					"host": [
						"127",
						"0",
						"0",
						"1"
					],
					"port": "8080",
					"path": [
						"transactions"
					]
				}
			},
			"response": [
				{
					"name": "Add transaction #0 [BAD]",
					"originalRequest": {
						"method": "POST",
						"header": [],
						"body": {
							"mode": "raw",
							"raw": "{}",
							"options": {
								"raw": {
									"language": "json"
								}
							}
						},
						"url": {
							"raw": "http://127.0.0.1:8080/transactions",
							"protocol": "http",
							"host": [
								"127",
								"0",
								"0",
								"1"
							],
							"port": "8080",
							"path": [
								"transactions"
							]
						}
					},
					"status": "OK",
					"code": 200,
					"_postman_previewlanguage": "json",
					"header": [
						{
							"key": "Content-Type",
							"value": "application/json; charset=utf-8"
						},
						{
							"key": "Content-Length",
							"value": "55"
						}
					],
					"cookie": [],
					"body": "{\n    \"message\": \"Request success transferred to 0/1 nodes\"\n}"
				}
			]
		},
		{
			"name": "Add transaction #1 [BAD]",
			"request": {
				"method": "POST",
				"header": [],
				"body": {
					"mode": "raw",
					"raw": "{}",
					"options": {
						"raw": {
							"language": "json"
						}
					}
				},
				"url": {
					"raw": "http://127.0.0.1:8081/transactions",
					"protocol": "http",
					"host": [
						"127",
						"0",
						"0",
						"1"
					],
					"port": "8081",
					"path": [
						"transactions"
					]
				}
			},
			"response": [
				{
					"name": "Add transaction #1 [BAD]",
					"originalRequest": {
						"method": "POST",
						"header": [],
						"body": {
							"mode": "raw",
							"raw": "{}",
							"options": {
								"raw": {
									"language": "json"
								}
							}
						},
						"url": {
							"raw": "http://127.0.0.1:8081/transactions",
							"protocol": "http",
							"host": [
								"127",
								"0",
								"0",
								"1"
							],
							"port": "8081",
							"path": [
								"transactions"
							]
						}
					},
					"status": "Bad Request",
					"code": 400,
					"_postman_previewlanguage": "json",
					"header": [
						{
							"key": "Content-Type",
							"value": "application/json; charset=utf-8"
						},
						{
							"key": "Content-Length",
							"value": "34"
						}
					],
					"cookie": [],
					"body": "{\n    \"message\": \"Invalid transaction\"\n}"
				}
			]
		}
	]
}